[{"id":1,"date":"10/9/2018","value":"$9.73","latitude":10.4977514,"longitude":-63.5540551,"city":"Cariaco"},
{"id":2,"date":"10/30/2018","value":"$4.30","latitude":-29.6731137,"longitude":29.9590375,"city":"Impendle"},
{"id":3,"date":"12/15/2018","value":"$2.63","latitude":16.0954654,"longitude":99.8348146,"city":"Khanu Woralaksaburi"},
{"id":4,"date":"1/18/2019","value":"$2.22","latitude":33.9548846,"longitude":-118.0273914,"city":"Whittier"},
{"id":5,"date":"11/16/2018","value":"$3.89","latitude":40.6945036,"longitude":-73.9565551,"city":"Brooklyn"},
{"id":6,"date":"5/26/2019","value":"$2.61","latitude":43.6173787,"longitude":21.0023004,"city":"Trstenik"},
{"id":7,"date":"11/7/2018","value":"$7.85","latitude":7.3889508,"longitude":-80.4215246,"city":"TonosÃ­"},
{"id":8,"date":"10/11/2018","value":"$8.60","latitude":15.8352583,"longitude":120.5648017,"city":"San Pedro Apartado"},
{"id":9,"date":"10/12/2018","value":"$2.38","latitude":48.8610504,"longitude":2.3237084,"city":"Paris 11"},
{"id":10,"date":"3/26/2019","value":"$1.70","latitude":44.9447526,"longitude":4.8413855,"city":"Saint-PÃ©ray"}]
